{
  "properties": [
    {
      "name": "processor.initialDelay",
      "type": "int",
      "description": "Initial delay in milliseconds for the input polling consumer."
    },
    {
      "name": "processor.delay",
      "type": "int",
      "description": "Polling consumer timeout in milliseconds."
    },
    {
      "name": "processor.invalidDir",
      "type": "java.lang.String",
      "description": "An invalid JSON data directory, may be an absolute path or a path relative to 'defaultDir'."
    },
    {
      "name": "processor.failedDir",
      "type": "java.lang.String",
      "description": "A failed to process data directory, may be an absolute path or a path relative to 'defaultDir'."
    },
    {
      "name": "processor.outputDir",
      "type": "java.lang.String",
      "description": "A directory containing failed results, may be an absolute path or a path relative to 'defaultDir'."
    },
    {
      "name": "processor.deleteInput",
      "type": "java.lang.Boolean",
      "description": "Indicates whether or not the process should delete input files."
    }
  ] 
}
